{
    "related": {
        "uuid": "11e81bbe-5b34-a426-8614-a0369fe50396",
        "slug": "alessia-cara",
        "name": "Alessia Cara",
        "appUrl": "https://app.soundcharts.com/app/artist/alessia-cara/overview",
        "imageUrl": "https://assets.soundcharts.com/artist/4/3/b/11e81bbe-5b34-a426-8614-a0369fe50396.jpg"
    },
    "items": [
        {
            "uuid": "ede46e4d-095a-4da1-933a-cc85ddcd98d7",
            "name": "How Far I'll Go (From \"Vaiana\")",
            "creditName": "Alessia Cara",
            "releaseDate": null
        },
        {
            "uuid": "8f387162-4bc7-477c-ace0-ffe67235d8e7",
            "name": "How Far I'll Go (From \"Vaiana\")",
            "creditName": "Alessia Cara",
            "releaseDate": null
        },
        {
            "uuid": "57867156-9865-4ead-a855-5ef5b7a30c84",
            "name": "How Far I'll Go (From \"Vaiana\")",
            "creditName": "Alessia Cara",
            "releaseDate": null
        },
        {
            "uuid": "fc8ada35-c7f2-4b4a-a63b-5c5a9e8b7b6d",
            "name": "How Far I'll Go (From \"Vaiana\")",
            "creditName": "Alessia Cara",
            "releaseDate": null
        },
        {
            "uuid": "7fa9b126-e32d-4b23-8bde-99738d8901fc",
            "name": "How Far I'll Go (From \"Vaiana\")",
            "creditName": "Alessia Cara",
            "releaseDate": null
        },
        {
            "uuid": "525402de-1717-4f89-a52b-31b079e2c536",
            "name": "How Far I'll Go (From \"Vaiana\")",
            "creditName": "Alessia Cara",
            "releaseDate": null
        },
        {
            "uuid": "dd9c718e-0be9-4a2e-88b2-e7f64e4bef9e",
            "name": "How Far I'll Go (From \"Vaiana\")",
            "creditName": "Alessia Cara",
            "releaseDate": null
        },
        {
            "uuid": "d1f66e01-137c-4283-b66c-4c220040d575",
            "name": "How Far I'll Go (From \"Vaiana\")",
            "creditName": "Alessia Cara",
            "releaseDate": null
        },
        {
            "uuid": "158adf83-9995-41f6-9460-ed2de6671b32",
            "name": "How Far I'll Go (From \"Vaiana\")",
            "creditName": "Alessia Cara",
            "releaseDate": null
        },
        {
            "uuid": "a1e55a90-da69-4d58-9c34-54f34915bb86",
            "name": "How Far I'll Go (From \"Vaiana\")",
            "creditName": "Alessia Cara",
            "releaseDate": null
        },
        {
            "uuid": "ed878ffd-4d4c-48a4-a818-bb9a557b188c",
            "name": "How Far I'll Go (From \"Vaiana\")",
            "creditName": "Alessia Cara",
            "releaseDate": null
        },
        {
            "uuid": "1bbe322a-7d8c-4ef4-8c4e-8d2ab5a226bd",
            "name": "How Far I'll Go (From \"Vaiana\")",
            "creditName": "Alessia Cara",
            "releaseDate": null
        },
        {
            "uuid": "2847c2ea-7970-409b-b871-61b917c492d8",
            "name": "How Far I'll Go (From \"Vaiana\")",
            "creditName": "Alessia Cara",
            "releaseDate": null
        },
        {
            "uuid": "ba73be6d-0cd7-4f73-af9e-d501aa9ba4bd",
            "name": "How Far I'll Go (From \"Vaiana\")",
            "creditName": "Alessia Cara",
            "releaseDate": null
        },
        {
            "uuid": "0ad316cc-fdbb-4c02-9c5a-e14eaf814f23",
            "name": "How Far I'll Go (From \"Vaiana\")",
            "creditName": "Alessia Cara",
            "releaseDate": null
        },
        {
            "uuid": "11e840a7-b725-0272-b7c7-a0369fe50396",
            "name": "How Far I'll Go (From Disney's ''Moana'')",
            "creditName": "",
            "releaseDate": null
        },
        {
            "uuid": "992aa60f-c9d2-440d-b450-2425c5ad6f27",
            "name": "How Far I'll Go - Alessia Cara Version",
            "creditName": "Alessia Cara",
            "releaseDate": null
        },
        {
            "uuid": "30913869-b05e-4074-a67f-cdb4689d605d",
            "name": "How Far I'll Go - Alessia Cara Version",
            "creditName": "Alessia Cara",
            "releaseDate": null
        },
        {
            "uuid": "319d0589-e5ef-48e0-bc14-a1985d6ebcea",
            "name": "How Far I'll Go - Alessia Cara Version",
            "creditName": "Alessia Cara",
            "releaseDate": null
        },
        {
            "uuid": "7f0d70c5-151f-403f-a295-edf3218207ee",
            "name": "How Far I'll Go - Alessia Cara Version",
            "creditName": "Alessia Cara",
            "releaseDate": null
        },
        {
            "uuid": "294ae68f-4149-4b38-baef-1633f935450c",
            "name": "How Far I'll Go - Alessia Cara Version",
            "creditName": "Alessia Cara",
            "releaseDate": null
        },
        {
            "uuid": "c9af7087-9a1b-4cb8-841a-64e7e82490c4",
            "name": "How Far I'll Go - Alessia Cara Version",
            "creditName": "Alessia Cara",
            "releaseDate": null
        },
        {
            "uuid": "45024c3b-dd63-4539-8e4c-909640b0d3ac",
            "name": "How Far I'll Go - Alessia Cara Version",
            "creditName": "Alessia Cara",
            "releaseDate": null
        },
        {
            "uuid": "9f9d65ea-6ba5-408b-9f71-b6d8caf6f477",
            "name": "How Far I'll Go - Alessia Cara Version",
            "creditName": "Alessia Cara",
            "releaseDate": null
        },
        {
            "uuid": "715c2599-f1e6-43f9-8325-11114f7653c0",
            "name": "How Far I'll Go - Alessia Cara Version",
            "creditName": "Alessia Cara",
            "releaseDate": null
        },
        {
            "uuid": "e23c266f-9851-4250-afaa-d5f5cfe596af",
            "name": "How Far I'll Go - Alessia Cara Version",
            "creditName": "Alessia Cara",
            "releaseDate": null
        },
        {
            "uuid": "7b871386-6e0d-4005-bc2e-d8effbfb4962",
            "name": "How Far I'll Go - Alessia Cara Version",
            "creditName": "Alessia Cara",
            "releaseDate": null
        },
        {
            "uuid": "e26c39fd-ab11-4aef-8344-de5ad7e5bf90",
            "name": "How Far I'll Go - Alessia Cara Version",
            "creditName": "Alessia Cara",
            "releaseDate": null
        },
        {
            "uuid": "aa678a7c-36c3-4795-8115-9b4b4aeefbc9",
            "name": "How Far I'll Go - Alessia Cara Version",
            "creditName": "Alessia Cara",
            "releaseDate": null
        },
        {
            "uuid": "04e64fc9-9971-401c-9680-88b0241b8fa1",
            "name": "How Far I'll Go - Alessia Cara Version",
            "creditName": "Alessia Cara",
            "releaseDate": null
        },
        {
            "uuid": "5d803ec9-3f2d-4b84-acae-a04c1d8c8a8c",
            "name": "How Far I'll Go - Alessia Cara Version",
            "creditName": "Alessia Cara",
            "releaseDate": null
        },
        {
            "uuid": "9d5a74e5-dd99-4f93-add7-d9c2882aeec3",
            "name": "How Far I'll Go - Alessia Cara Version",
            "creditName": "Alessia Cara",
            "releaseDate": null
        },
        {
            "uuid": "39b5a678-55f7-470a-970e-ba8f98e3adcf",
            "name": "How Far I'll Go - Alessia Cara Version",
            "creditName": "Alessia Cara",
            "releaseDate": null
        },
        {
            "uuid": "402efe5c-8dcc-4362-9875-e6399fa28534",
            "name": "How Far I'll Go - Alessia Cara Version",
            "creditName": "Alessia Cara",
            "releaseDate": null
        },
        {
            "uuid": "78b04e61-437b-49b5-b620-7042c5921ac1",
            "name": "How Far I'll Go - Alessia Cara Version",
            "creditName": "Alessia Cara",
            "releaseDate": null
        },
        {
            "uuid": "fc7a377e-4bc3-4325-af3e-173bab5aaab4",
            "name": "How Far I'll Go - Alessia Cara Version",
            "creditName": "Alessia Cara",
            "releaseDate": null
        },
        {
            "uuid": "d1758ecb-3ff0-4aea-9cb3-8557cb29c212",
            "name": "How Far I'll Go - Alessia Cara Version",
            "creditName": "Alessia Cara",
            "releaseDate": null
        },
        {
            "uuid": "17cb328c-0685-4261-8868-2f2f230e1f47",
            "name": "How Far I'll Go - Alessia Cara Version",
            "creditName": "Alessia Cara",
            "releaseDate": null
        },
        {
            "uuid": "1ea215bf-da9a-4bcb-9bd3-14027c31f272",
            "name": "How Far I'll Go - Alessia Cara Version",
            "creditName": "Alessia Cara",
            "releaseDate": null
        },
        {
            "uuid": "561e7ad9-6cf1-442a-b80d-d49231f7332d",
            "name": "How Far I'll Go - Alessia Cara Version",
            "creditName": "Alessia Cara",
            "releaseDate": null
        },
        {
            "uuid": "dbec0a31-506e-4a96-9b86-eca9851c3420",
            "name": "How Far I'll Go - Alessia Cara Version",
            "creditName": "Alessia Cara",
            "releaseDate": null
        },
        {
            "uuid": "5c46a338-5e52-4dbe-9e85-a826de467be8",
            "name": "How Far I'll Go - Alessia Cara Version",
            "creditName": "Alessia Cara",
            "releaseDate": null
        },
        {
            "uuid": "418ff07f-9d6d-4617-8675-6add8d1eb534",
            "name": "How Far I'll Go - Alessia Cara Version",
            "creditName": "Alessia Cara",
            "releaseDate": null
        },
        {
            "uuid": "281dab72-4fa6-4d8a-9513-5d817d9ef566",
            "name": "How Far I'll Go - From \"Moana\"",
            "creditName": "Alessia Cara",
            "releaseDate": "2016-10-28T00:00:00+02:00"
        },
        {
            "uuid": "c22bb4fd-fed3-462e-853c-5d6a1b6528c1",
            "name": "How Far I'll Go - From \"Moana\"",
            "creditName": "Alessia Cara",
            "releaseDate": "2016-10-28T00:00:00+02:00"
        },
        {
            "uuid": "11e8409f-df3e-cf3e-97d2-a0369fe50396",
            "name": "How Far I'll Go - From \"Moana\"",
            "creditName": "",
            "releaseDate": "2016-10-28T00:00:00+02:00"
        },
        {
            "uuid": "0d662ad6-ae4a-4cbd-a644-9422fb5217d9",
            "name": "How Far I'll Go - From \"Moana\"",
            "creditName": "Alessia Cara",
            "releaseDate": null
        },
        {
            "uuid": "8564debf-2022-4cdd-8829-98a41d7ac0a7",
            "name": "How Far I'll Go - From \"Oceania\"",
            "creditName": "Alessia Cara",
            "releaseDate": "2016-10-28T00:00:00+02:00"
        },
        {
            "uuid": "a3f9f424-361e-4160-8d79-31a957231020",
            "name": "How Far I'll Go - From \"Oceania\"",
            "creditName": "Alessia Cara",
            "releaseDate": null
        },
        {
            "uuid": "d83bd0d9-cb04-4933-915b-ee32ac7f264f",
            "name": "How Far I'll Go - From \"Vaiana\"",
            "creditName": "Alessia Cara",
            "releaseDate": "2016-10-28T00:00:00+02:00"
        },
        {
            "uuid": "762edcd1-4a8b-4635-94af-5000e3f1d529",
            "name": "How Far I'll Go - \u30a8\u30f3\u30c9\u30bd\u30f3\u30b0",
            "creditName": "Alessia Cara",
            "releaseDate": "2017-02-08T00:00:00+01:00"
        },
        {
            "uuid": "f53fa810-2b4c-4ffe-a5be-687d14a7408a",
            "name": "How Far I'll Go - \u30a8\u30f3\u30c9\u30bd\u30f3\u30b0",
            "creditName": "Alessia Cara",
            "releaseDate": "2017-07-05T00:00:00+02:00"
        },
        {
            "uuid": "f2336329-a534-4093-b0bf-69c92a6ba226",
            "name": "How Far I'll Go - \u30a8\u30f3\u30c9\u30bd\u30f3\u30b0",
            "creditName": "Alessia Cara",
            "releaseDate": "2017-03-01T00:00:00+01:00"
        },
        {
            "uuid": "11e840a0-35a8-640c-b8f5-a0369fe50396",
            "name": "How Far I'll Go(Alessia Cara Version)",
            "creditName": "",
            "releaseDate": null
        },
        {
            "uuid": "11e8263e-614d-0ea4-a1e5-aa1c026db3d8",
            "name": "I Can Only.",
            "creditName": "JoJo feat. Alessia Cara",
            "releaseDate": null
        },
        {
            "uuid": "0b189799-eaa7-49a5-a815-5735f90afd24",
            "name": "I Choose (MK Remix) [Mixed]",
            "creditName": "Alessia Cara",
            "releaseDate": "2022-05-27T00:00:00+02:00"
        },
        {
            "uuid": "d18a92e8-abdb-11ea-88de-b4969113da24",
            "name": "I Choose - From The Netflix Original Film The Willoughbys / MK Remix",
            "creditName": "Alessia Cara & MK",
            "releaseDate": null
        },
        {
            "uuid": "11e8413e-f154-4f2e-a7bf-a0369fe50396",
            "name": "I Guess That's Why They Call It The Blues",
            "creditName": "Alessia Cara",
            "releaseDate": "2018-04-06T00:00:00+02:00"
        },
        {
            "uuid": "11e8413e-fdb7-ab44-9fd6-a0369fe50396",
            "name": "I Guess That's Why They Call It the Blues",
            "creditName": "",
            "releaseDate": null
        },
        {
            "uuid": "c9af1915-5eb1-4976-893c-f85bc94cb45c",
            "name": "I'm Like A Bird - Recorded at Spotify Studios NYC",
            "creditName": "Alessia Cara",
            "releaseDate": null
        },
        {
            "uuid": "aedb3f06-7c5f-40b3-a2ef-f86b5c07b1a8",
            "name": "Last Goodbye",
            "creditName": "Alessia Cara",
            "releaseDate": "2021-11-05T00:00:00+01:00"
        },
        {
            "uuid": "11e84099-8cc6-ecf6-9b3c-a0369fe50396",
            "name": "Magnets (Radio 1 Live Lounge, 7 Jan 2016)",
            "creditName": "Alessia Cara",
            "releaseDate": null
        },
        {
            "uuid": "7b695a26-f29a-4406-9d23-65ea14208974",
            "name": "Make It To Christmas (Mixed)",
            "creditName": "Alessia Cara",
            "releaseDate": "2021-12-23T00:00:00+01:00"
        },
        {
            "uuid": "1c15aae4-4e06-11e9-a0bc-549f35161576",
            "name": "Out Of Love (Devault Remix)",
            "creditName": "",
            "releaseDate": null
        },
        {
            "uuid": "0f9a7b72-5866-11e9-b317-00163ec5a2fb",
            "name": "Out Of Love (Mangal Suvarnan Remix)",
            "creditName": "Alessia Cara & Mangal Suvarnan",
            "releaseDate": "2019-04-05T00:00:00+02:00"
        },
        {
            "uuid": "fcfec9f3-8790-452b-ba68-0cec427e35aa",
            "name": "Out Of Love (Ruhde Remix)",
            "creditName": "Alessia Cara & Ruhde",
            "releaseDate": "2019-04-05T00:00:00+02:00"
        },
        {
            "uuid": "e1386c07-c0ae-4df8-a191-05bf8c37e8a8",
            "name": "Out Of Love - Morgan Page Remix",
            "creditName": "Alessia Cara & Morgan Page",
            "releaseDate": "2019-04-05T00:00:00+02:00"
        },
        {
            "uuid": "4608d66e-66a7-11e9-a2e6-549f35161576",
            "name": "Out Of Love - Recorded at Spotify Studios NYC",
            "creditName": "Alessia Cara",
            "releaseDate": null
        },
        {
            "uuid": "cb296248-af5c-11e9-9e17-801844edfa71",
            "name": "Querer Mejor - Sam Feldt Remix",
            "creditName": "Juanes & Alessia Cara & Sam Feldt",
            "releaseDate": "2019-07-26T00:00:00+02:00"
        },
        {
            "uuid": "5a588197-63a9-45b5-9ae0-496d2e3e556e",
            "name": "Scars to Your Beatiful",
            "creditName": "Alessia Cara",
            "releaseDate": null
        },
        {
            "uuid": "e8be4a8e-89d8-4779-a262-5afe7a6bf96d",
            "name": "Scars To Your Beatiful",
            "creditName": "Alessia Cara",
            "releaseDate": null
        },
        {
            "uuid": "eef45ac4-d6d7-11e8-8805-525400009efb",
            "name": "Scars To Your Beautiful",
            "creditName": "",
            "releaseDate": null
        },
        {
            "uuid": "130c99e9-084d-48a7-8b8b-0110a6c171f2",
            "name": "Scars To Your Beautiful",
            "creditName": "Alessia Cara",
            "releaseDate": null
        },
        {
            "uuid": "11e82728-57bc-eca2-8a29-a0369fe50396",
            "name": "Scars to Your Beautiful (Luca Schreiner remix)",
            "creditName": "Alessia Cara & Luca Schreiner",
            "releaseDate": "2016-10-21T00:00:00+02:00"
        },
        {
            "uuid": "8ac392d3-1869-4f76-ac16-e8edf4424e01",
            "name": "Shapeshifter",
            "creditName": "Alessia Cara",
            "releaseDate": "2021-10-15T00:00:00+02:00"
        },
        {
            "uuid": "11e840c9-5476-57a8-b2d1-a0369fe50396",
            "name": "Stay",
            "creditName": "Zedd & Alessia Cara",
            "releaseDate": null
        },
        {
            "uuid": "8347a1aa-7a88-4adf-9d84-23f5c32d9793",
            "name": "Stay",
            "creditName": "Zedd & Alessia Cara",
            "releaseDate": null
        },
        {
            "uuid": "4f8517ab-98de-4f9d-b492-b493a0ce6783",
            "name": "Stay",
            "creditName": "Zedd & Alessia Cara",
            "releaseDate": null
        },
        {
            "uuid": "11e84113-9c9f-e216-a50c-a0369fe50396",
            "name": "Stay",
            "creditName": "Zedd & Alessia Cara & lophiile",
            "releaseDate": "2017-06-02T00:00:00+02:00"
        },
        {
            "uuid": "6fad60a4-c90d-4679-b112-9309292c1255",
            "name": "Stay (DJ Gonzalez Remix)",
            "creditName": "ZEDD & Alessia Cara",
            "releaseDate": "2020-09-25T00:00:00+02:00"
        },
        {
            "uuid": "11e826ae-e4ba-191a-9e8c-a0369fe50396",
            "name": "Stay (Jonas Blue remix)",
            "creditName": "Zedd & Alessia Cara",
            "releaseDate": "2017-06-02T00:00:00+02:00"
        },
        {
            "uuid": "11e84110-ec72-2a22-82f7-aa1c026db3d8",
            "name": "Stay (Jonas Blue Remix)",
            "creditName": "Zedd & Alessia Cara & Jonas Blue",
            "releaseDate": "2017-06-02T00:00:00+02:00"
        },
        {
            "uuid": "11e840a4-4c78-67e6-bad5-a0369fe50396",
            "name": "Stay (Lophiile Remix)",
            "creditName": "",
            "releaseDate": "2017-06-02T00:00:00+02:00"
        },
        {
            "uuid": "6b54e93e-b8cf-11e8-89aa-525400009efb",
            "name": "Stay (Lophiile Remix)",
            "creditName": "",
            "releaseDate": null
        },
        {
            "uuid": "11e840a4-4585-5016-9e7c-a0369fe50396",
            "name": "Stay (Petit Biscuit Remix)",
            "creditName": "",
            "releaseDate": "2017-06-02T00:00:00+02:00"
        },
        {
            "uuid": "11e840a4-4585-0c64-a4ec-aa1c026db3d8",
            "name": "Stay (The Kemist Remix)",
            "creditName": "ZEDD, \u30a2\u30ec\u30c3\u30b7\u30a2\u30fb\u30ab\u30fc\u30e9 & The Kemist",
            "releaseDate": "2017-06-02T00:00:00+02:00"
        },
        {
            "uuid": "11e840a4-45da-63da-8273-a0369fe50396",
            "name": "Stay (Tritonal Remix)",
            "creditName": "",
            "releaseDate": "2017-06-02T00:00:00+02:00"
        },
        {
            "uuid": "fdaed0e4-6fa1-4fd6-8426-053b0616a7a2",
            "name": "Stay (Vitaco Remix)",
            "creditName": "ZEDD",
            "releaseDate": null
        },
        {
            "uuid": "fc3c6828-b5e5-4d90-82f0-a0c0be98f060",
            "name": "Stay (with Alessia Cara) - Lophiile Remix",
            "creditName": "Zedd & Alessia Cara & lophiile",
            "releaseDate": "2017-06-02T00:00:00+02:00"
        },
        {
            "uuid": "b58c7512-2f94-11e9-9dd9-549f35161576",
            "name": "Stay (with Alessia Cara) - Petit Biscuit Remix",
            "creditName": "Zedd & Alessia Cara & Petit Biscuit",
            "releaseDate": "2017-06-02T00:00:00+02:00"
        },
        {
            "uuid": "11e826ae-e4b7-2840-b86b-a0369fe50396",
            "name": "Stay (Yasutaka Nakata remix)",
            "creditName": "Zedd & Alessia Cara",
            "releaseDate": null
        },
        {
            "uuid": "11e840a4-447e-f410-a49d-aa1c026db3d8",
            "name": "Stay (Yasutaka Nakata Remix)",
            "creditName": "ZEDD, \u30a2\u30ec\u30c3\u30b7\u30a2\u30fb\u30ab\u30fc\u30e9 & \u4e2d\u7530\u30e4\u30b9\u30bf\u30ab",
            "releaseDate": "2017-06-02T00:00:00+02:00"
        },
        {
            "uuid": "ad78134d-6790-4e4d-b9b0-b6631500a1cc",
            "name": "Stay - Lophiile Remix",
            "creditName": "Zedd & Alessia Cara & lophiile",
            "releaseDate": "2017-06-02T00:00:00+02:00"
        },
        {
            "uuid": "24a4f4e4-32da-49d9-bec1-b9b8fb4ee9a5",
            "name": "Stay - Tritonal Remix",
            "creditName": "Zedd & Alessia Cara & Tritonal",
            "releaseDate": "2017-06-02T00:00:00+02:00"
        },
        {
            "uuid": "11e840bf-1532-98ae-9af0-a0369fe50396",
            "name": "Stone",
            "creditName": "",
            "releaseDate": null
        },
        {
            "uuid": "11e826cc-cc75-00c2-b732-a0369fe50396",
            "name": "Summer Hit Mix 2017 (Continuous mix 2)",
            "creditName": "Clean Bandit feat. Sean Paul & Anne\u2010Marie / Starley / Zedd & Alessia Cara / Calum Scott / Sigma / Nick Jonas / JP Cooper / Cheat Codes feat. Demi Lovato / Anne\u2010Marie / Emeli Sand\u00e9 / Take That / Bastille / Ellie Goulding / Niall Horan / Steve Aoki & Louis ",
            "releaseDate": null
        },
        {
            "uuid": "24beab7b-a246-4091-bf06-84a4a5c5f589",
            "name": "Sweet Dream",
            "creditName": "Alessia Cara",
            "releaseDate": "2021-10-08T00:00:00+02:00"
        },
        {
            "uuid": "403433fb-82b2-41c4-90f5-9cc878c19ea2",
            "name": "Sweet Dream Lullaby (Instrumental)",
            "creditName": "Alessia Cara",
            "releaseDate": null
        },
        {
            "uuid": "0b368db1-6c8a-4c47-80b7-20bf9e2c9b33",
            "name": "Sweet Dream Lullaby (Instrumental)",
            "creditName": "Alessia Cara",
            "releaseDate": null
        },
        {
            "uuid": "7ab63e77-fe46-4111-aaec-f8b466265e52",
            "name": "Sweet Dream Lullaby (Piano Mix)",
            "creditName": "Alessia Cara",
            "releaseDate": null
        }
    ],
    "page": {
        "offset": 200,
        "limit": 100,
        "next": "/api/v2.21/artist/11e81bbe-5b34-a426-8614-a0369fe50396/songs?sortBy=spotifyStream&sortOrder=desc&offset=300&limit=100",
        "previous": "/api/v2.21/artist/11e81bbe-5b34-a426-8614-a0369fe50396/songs?sortBy=spotifyStream&sortOrder=desc&offset=100&limit=100",
        "total": 334
    },
    "errors": []
}