{
    "related": {
        "name": "Spotify",
        "identifier": "spotify"
    },
    "items": [
        {
            "uuid": "11e84493-5281-9002-b572-a0369fe50396",
            "name": "Today's Top Hits",
            "identifier": "37i9dQZF1DXcBWIGoYBM5M",
            "platform": "spotify",
            "countryCode": "US",
            "latestCrawlDate": "2022-07-04T03:10:01+02:00",
            "latestTrackCount": 50,
            "latestSubscriberCount": 31365573,
            "type": "Editorial"
        },
        {
            "uuid": "11e84493-6ba8-1b6e-8aa0-a0369fe50396",
            "name": "Top 50 - Global",
            "identifier": "37i9dQZEVXbMDoHDwVN2tF",
            "platform": "spotify",
            "countryCode": "",
            "latestCrawlDate": "2022-07-04T03:10:01+02:00",
            "latestTrackCount": 50,
            "latestSubscriberCount": 16890463,
            "type": "Charts"
        },
        {
            "uuid": "11e84493-45dd-57a0-8026-a0369fe50396",
            "name": "RapCaviar",
            "identifier": "37i9dQZF1DX0XUsuxWHRQd",
            "platform": "spotify",
            "countryCode": "US",
            "latestCrawlDate": "2022-07-04T03:10:01+02:00",
            "latestTrackCount": 50,
            "latestSubscriberCount": 14545238,
            "type": "Editorial"
        },
        {
            "uuid": "11e84493-4603-2eee-96b4-a0369fe50396",
            "name": "Viva Latino",
            "identifier": "37i9dQZF1DX10zKzsJ2jva",
            "platform": "spotify",
            "countryCode": "",
            "latestCrawlDate": "2022-07-04T03:10:01+02:00",
            "latestTrackCount": 50,
            "latestSubscriberCount": 11952373,
            "type": "Editorial"
        },
        {
            "uuid": "11e84493-422c-c6c2-af30-a0369fe50396",
            "name": "Baila Reggaeton",
            "identifier": "37i9dQZF1DWY7IeIP1cdjF",
            "platform": "spotify",
            "countryCode": "AR",
            "latestCrawlDate": "2022-07-04T03:10:01+02:00",
            "latestTrackCount": 52,
            "latestSubscriberCount": 10512889,
            "type": "Editorial"
        }
    ],
    "page": {
        "offset": 0,
        "limit": 5,
        "next": "/api/v2.20/playlist/by-curator/spotify/spotify?sortBy=audience&sortOrder=desc&offset=5&limit=5",
        "previous": null,
        "total": 127782
    },
    "errors": []
}