{
    "items": [
        {
            "name": "Nat King",
            "identifier": "03kingn"
        },
        {
            "name": "bailey peay",
            "identifier": "0517bp"
        },
        {
            "name": "David Archuleta",
            "identifier": "04zle47kttetidyjzcf6qsx39"
        },
        {
            "name": "Rodrigo",
            "identifier": "05gqfnojy5z1mrfwv9k0c40ow"
        },
        {
            "name": "05272017",
            "identifier": "05272017"
        },
        {
            "name": "carly",
            "identifier": "066m6nqphrimj1qecn2lxpfa9"
        },
        {
            "name": "Josh Millhouse",
            "identifier": "06jmillhouse"
        },
        {
            "name": "Azzyzinhoo <3",
            "identifier": "05s1rah1z0obxp536ugkutcye"
        },
        {
            "name": "Filip Salomonsson",
            "identifier": "0706548644"
        },
        {
            "name": "PPalm JTP ",
            "identifier": "06kk23x6q7mruyed35g05rczy"
        },
        {
            "name": "Zajno",
            "identifier": "07tmdyt41li0h95g7md4rt7g8"
        },
        {
            "name": "07077",
            "identifier": "07077"
        },
        {
            "name": "MoneyWasted",
            "identifier": "07ugyh9f4fmccpnish3oxr64y"
        },
        {
            "name": "IAMNOTMYHISTORY",
            "identifier": "07vtnmyu9ey78a3z3fc8ukqxj"
        },
        {
            "name": "dil.",
            "identifier": "08161456894"
        },
        {
            "name": "0816103000",
            "identifier": "0816103000"
        },
        {
            "name": "Attar",
            "identifier": "08558487227"
        },
        {
            "name": "08561234150",
            "identifier": "08561234150"
        },
        {
            "name": "Nada",
            "identifier": "085624149424"
        },
        {
            "name": "085624816747",
            "identifier": "085624816747"
        },
        {
            "name": "08563377345",
            "identifier": "08563377345"
        },
        {
            "name": "Dandhee Widiadamarrama",
            "identifier": "085640064078"
        },
        {
            "name": "085659573564",
            "identifier": "085659573564"
        },
        {
            "name": "dsy",
            "identifier": "085659585854"
        },
        {
            "name": "xxxhae",
            "identifier": "08567243407"
        },
        {
            "name": "085692088850",
            "identifier": "085692088850"
        },
        {
            "name": "NA2NG",
            "identifier": "08567645712"
        },
        {
            "name": "085697538888",
            "identifier": "085697538888"
        },
        {
            "name": "085705184955",
            "identifier": "085705184955"
        },
        {
            "name": "085733553307",
            "identifier": "085733553307"
        },
        {
            "name": "085738321856",
            "identifier": "085738321856"
        },
        {
            "name": "Ery Hardani",
            "identifier": "085753198764"
        },
        {
            "name": "Deddy Avianto",
            "identifier": "085781108954"
        },
        {
            "name": "Shitta Mutyahara",
            "identifier": "085781427327"
        },
        {
            "name": "085786368680",
            "identifier": "085786368680"
        },
        {
            "name": "085794698357",
            "identifier": "085794698357"
        },
        {
            "name": "085894712190",
            "identifier": "085894712190"
        },
        {
            "name": "08acor",
            "identifier": "08acor"
        },
        {
            "name": "08athertone",
            "identifier": "08athertone"
        },
        {
            "name": "milagros",
            "identifier": "08bbuodaft3b628faa39a31jy"
        },
        {
            "name": "Adib Najar",
            "identifier": "09054181583"
        },
        {
            "name": "Dykhuizen Bros",
            "identifier": "09072000"
        },
        {
            "name": "Claudio D\u00edaz",
            "identifier": "09claudiodiaz"
        },
        {
            "name": "Anna",
            "identifier": "0944r7aahsgna0lztgc8bthky"
        },
        {
            "name": "Daniel W. Eriksen",
            "identifier": "09mabro123"
        },
        {
            "name": "Dre",
            "identifier": "09riveraan"
        },
        {
            "name": "Frank Ojisan(NaoyaYamashita)",
            "identifier": "09uri"
        },
        {
            "name": "Underfoot Records",
            "identifier": "0ac3b9mjgopgpwd8mk0tdub48"
        },
        {
            "name": "Andr\u00e9 Luiz",
            "identifier": "0andreluiz"
        },
        {
            "name": "ACCA Malaysia",
            "identifier": "0ba3kcclrxbgl185w170v6s7u"
        },
        {
            "name": "0bar2510",
            "identifier": "0bar2510"
        },
        {
            "name": "zoe",
            "identifier": "0bijnz48lu8j7o79rbhob825b"
        },
        {
            "name": "Tsunaki Kadowaki \u21ac\u271e\u219d",
            "identifier": "0come_toshplus"
        },
        {
            "name": "NathanEspinoza",
            "identifier": "0cwzx6f4y7wbd86bintfgd2w7"
        },
        {
            "name": "alec",
            "identifier": "0cxq599y8954wozy9q44vk7rf"
        },
        {
            "name": "timbo",
            "identifier": "0d0w7tcq30lmvjcyto5mjspwr"
        },
        {
            "name": "lalalalisa",
            "identifier": "0diamond0"
        },
        {
            "name": "Alesy",
            "identifier": "0dmgzzuke0rad0wb5xys0iqwy"
        },
        {
            "name": "Carol abel",
            "identifier": "0dqznjdfo2kwd88ivhmfutaxh"
        },
        {
            "name": "0erplaylist",
            "identifier": "0erplaylist"
        },
        {
            "name": "madnessmya",
            "identifier": "0f64zz6ovpqucut8cpup0670h"
        },
        {
            "name": "TheVibesNetwork",
            "identifier": "0fhvt0m1vhkl5wiz01329noel"
        },
        {
            "name": "sunny maria",
            "identifier": "0gpi94kvjorox90juvt1kgt0u"
        },
        {
            "name": "0hemmagee",
            "identifier": "0hemmagee"
        },
        {
            "name": "Bramble",
            "identifier": "0i2t39aq2i09dz7p28jhxrx9u"
        },
        {
            "name": "Lincoln",
            "identifier": "0ict8vt1xdalz6c99o0wgmh8i"
        },
        {
            "name": "0menraven",
            "identifier": "0menraven"
        },
        {
            "name": "Dunnylr",
            "identifier": "0liwepu8dc9ufyyg5xczmxtnw"
        },
        {
            "name": "0mfgshae",
            "identifier": "0mfgshae"
        },
        {
            "name": "clsrider",
            "identifier": "0n32e7lx3wryam2vkvwa434c0"
        },
        {
            "name": "0phy73",
            "identifier": "0phy73"
        },
        {
            "name": "May e L\u00ea",
            "identifier": "0qmtyoiy0v0mzl8tm8mix7i12"
        },
        {
            "name": "SelenaAussie",
            "identifier": "0rcmv19nvaof73j8kqydjcjgp"
        },
        {
            "name": "Frej Olof Bergman",
            "identifier": "0rien"
        },
        {
            "name": "Ryan James",
            "identifier": "0rko"
        },
        {
            "name": "0scaringo",
            "identifier": "0scaringo"
        },
        {
            "name": "0telo",
            "identifier": "0telo"
        },
        {
            "name": "GaryVee",
            "identifier": "0toqzz63lp7ho6o9uuh8ku128"
        },
        {
            "name": "0utliness",
            "identifier": "0utliness"
        },
        {
            "name": "Sectorinstituut Transport en Logistiek",
            "identifier": "0umxgfo4oarj3oqd5fpvkii2q"
        },
        {
            "name": "OVANS",
            "identifier": "0vans"
        },
        {
            "name": "The Dapper Dads",
            "identifier": "0vapzc184us10mw80fvek5vfx"
        },
        {
            "name": "0x41414141",
            "identifier": "0x41414141"
        },
        {
            "name": "HallHang",
            "identifier": "0xnq76djsf5ac16el65poqg7g"
        },
        {
            "name": "SinaiVillage",
            "identifier": "0yofxtvlr50lvd7dolw8lrn6r"
        },
        {
            "name": "XXXAN\u00c3\u00c3O",
            "identifier": "0ip2ue4v1cw96pkauhynbd9bp"
        },
        {
            "name": "1-2-3-4festival",
            "identifier": "1-2-3-4festival"
        },
        {
            "name": "han <3",
            "identifier": "1.hanna"
        },
        {
            "name": "Main Branch Mecca",
            "identifier": "0ikdz1q224rye45jrv50h657o"
        },
        {
            "name": "1",
            "identifier": "1"
        },
        {
            "name": "Onno Makor",
            "identifier": "0nno"
        },
        {
            "name": "Ppnferrdaa",
            "identifier": "0o6dtqm9pyl981up11xnlm23q"
        },
        {
            "name": "Peter Johansson",
            "identifier": "1000608c1h"
        },
        {
            "name": "Sara Salius",
            "identifier": "1000shards"
        },
        {
            "name": "1000timesyes",
            "identifier": "1000timesyes"
        },
        {
            "name": "Kevin Costley",
            "identifier": "1001songs"
        },
        {
            "name": "1001tracklists",
            "identifier": "1001tracklists"
        },
        {
            "name": "Beth Hart",
            "identifier": "100hart"
        },
        {
            "name": "Flying Colors",
            "identifier": "100colors"
        },
        {
            "name": "100hyeoon",
            "identifier": "100hyeoon"
        }
    ],
    "page": {
        "offset": 200,
        "limit": 100,
        "next": "/api/v2/playlist/curators/spotify?offset=300&limit=100",
        "previous": "/api/v2/playlist/curators/spotify?offset=100&limit=100",
        "total": 1476411
    },
    "errors": []
}