{
    "items": [
        {
            "name": "Soundbase",
            "identifier": "!!!!!!!!!!!!!!!!!!!!!!!!!!!!!("
        },
        {
            "name": "Singing Palmtrees",
            "identifier": "!!!!!!!!!!!!!!!!!!!!!!!!!!!!!*"
        },
        {
            "name": "Sectr Artists",
            "identifier": "!!!!!!!!!!!!!!!!!!!!!!!!!!!!!3"
        },
        {
            "name": "!!!!!!!!!!!!!!!!",
            "identifier": "!!!!!!!!!!!!!!!!"
        },
        {
            "name": "Electro Beats",
            "identifier": "!!!!!!!!!!!!!!."
        },
        {
            "name": "JOKI",
            "identifier": "!!!!!!!!!!kidjoki"
        },
        {
            "name": "Deep Blue",
            "identifier": "!!!!!!!deepplaylists"
        },
        {
            "name": "!!!!ollieburrage!!!!",
            "identifier": "!!!!ollieburrage!!!!"
        },
        {
            "name": "Stephielli",
            "identifier": "!!!ephie!!!"
        },
        {
            "name": "!!abbey!!",
            "identifier": "!!abbey!!"
        },
        {
            "name": "SUNSET. playlists",
            "identifier": "!!bonde"
        },
        {
            "name": "Elin Waara",
            "identifier": "!!elii!!"
        },
        {
            "name": "Tianna Lawrence",
            "identifier": "!!flexy!!"
        },
        {
            "name": "\u00c5sne Gjelstad Reb\u00e5rd",
            "identifier": "!crazyme!"
        },
        {
            "name": "!K7 Records",
            "identifier": "!k7"
        },
        {
            "name": "M\u00f3nica Vargas",
            "identifier": "!moniih"
        },
        {
            "name": "Klaus Reckert",
            "identifier": "!spockify!"
        },
        {
            "name": "#$parklez",
            "identifier": "#$parklez"
        },
        {
            "name": "sophia",
            "identifier": "#1pokemon"
        },
        {
            "name": "#accenfest",
            "identifier": "#accenfest"
        },
        {
            "name": "#alemx",
            "identifier": "#alemx"
        },
        {
            "name": "#amfest",
            "identifier": "#amfest"
        },
        {
            "name": "Antwon",
            "identifier": "#anthonyfromtheway"
        },
        {
            "name": "#bah_felicia",
            "identifier": "#bah_felicia"
        },
        {
            "name": "Aaron Tam",
            "identifier": "#creed"
        },
        {
            "name": "#blerddating",
            "identifier": "#blerddating"
        },
        {
            "name": "Cristina Lopez Coronas",
            "identifier": "#criistina"
        },
        {
            "name": "#dasmituns",
            "identifier": "#dasmituns"
        },
        {
            "name": "#horsehour",
            "identifier": "#horsehour"
        },
        {
            "name": "#directioner1-us",
            "identifier": "#directioner1-us"
        },
        {
            "name": "amyleighhhh",
            "identifier": "#igotrocked"
        },
        {
            "name": "#justhip",
            "identifier": "#justhip"
        },
        {
            "name": "#loveme99",
            "identifier": "#loveme99"
        },
        {
            "name": "Juniper \ud83c\udf3f",
            "identifier": "#justinjones"
        },
        {
            "name": "#luneslunero",
            "identifier": "#luneslunero"
        },
        {
            "name": "Mango Portswood",
            "identifier": "#mangomusic"
        },
        {
            "name": "#RAP",
            "identifier": "#rapofficial"
        },
        {
            "name": "Isabela Pita Batista",
            "identifier": "#revoltz"
        },
        {
            "name": "@Spotify",
            "identifier": "#spotify"
        },
        {
            "name": "#teamhotz6",
            "identifier": "#teamhotz6"
        },
        {
            "name": "#zip_family",
            "identifier": "#zip_family"
        },
        {
            "name": "#vemprotuca",
            "identifier": "#vemprotuca"
        },
        {
            "name": "Brittney Marks",
            "identifier": "$$brittney$$"
        },
        {
            "name": "$adboy_",
            "identifier": "$adboy_"
        },
        {
            "name": "$ame_m$",
            "identifier": "$ame_m$"
        },
        {
            "name": "Tony Savage",
            "identifier": "$avage"
        },
        {
            "name": "Christian Schwartz",
            "identifier": "$gt.pepper"
        },
        {
            "name": "$tripclubs",
            "identifier": "$tripclubs"
        },
        {
            "name": "alex",
            "identifier": "$udden"
        },
        {
            "name": "Chuco Chava",
            "identifier": "$ureno13"
        },
        {
            "name": "maria.",
            "identifier": "((mariia))"
        },
        {
            "name": "$wagger420",
            "identifier": "$wagger420"
        },
        {
            "name": "((not))abigail",
            "identifier": "((not))abigail"
        },
        {
            "name": "Liam Gildea",
            "identifier": "(^o^)"
        },
        {
            "name": "(bibiana)",
            "identifier": "(bibiana)"
        },
        {
            "name": "Alejandro Castillo",
            "identifier": "(_alba_)"
        },
        {
            "name": "**mina**",
            "identifier": "**mina**"
        },
        {
            "name": "*aimzz*",
            "identifier": "*aimzz*"
        },
        {
            "name": "Eme",
            "identifier": "*dark*"
        },
        {
            "name": "Listas Geniales",
            "identifier": "*listasgeniales"
        },
        {
            "name": "*mart*",
            "identifier": "*mart*"
        },
        {
            "name": "*predicto*",
            "identifier": "*predicto*"
        },
        {
            "name": "Paul Hitchen",
            "identifier": "*ronburgundy*"
        },
        {
            "name": "Guille Men\u00e9ndez Rodr\u00edguez",
            "identifier": "*psicobot*"
        },
        {
            "name": "*sammyleo",
            "identifier": "*sammyleo"
        },
        {
            "name": "*yume",
            "identifier": "*yume"
        },
        {
            "name": "Rakel Outeiral Su\u00e1rez",
            "identifier": "*_rachel_*"
        },
        {
            "name": "SENSA",
            "identifier": "+h_by_hlm"
        },
        {
            "name": "Julia Karstinen",
            "identifier": "[julleh]"
        },
        {
            "name": "Koggi Dj",
            "identifier": "[koggi]"
        },
        {
            "name": "[pias]iberoam\u00e9rica",
            "identifier": "[pias]iberoam\u00e9rica"
        },
        {
            "name": "travis.h",
            "identifier": "\u00abtravis.h\u00bb"
        },
        {
            "name": "Yoveli Rosas",
            "identifier": "[yoveli][r]"
        },
        {
            "name": "FRINGEMUSICFIX",
            "identifier": "{fringemusicfix}"
        },
        {
            "name": "\u00c1sgeir",
            "identifier": "\u00e1sgeirmusic"
        },
        {
            "name": "\u00e1lvaromarques",
            "identifier": "\u00e1lvaromarques"
        },
        {
            "name": "\u00e4ngersj\u00f6",
            "identifier": "\u00e4ngersj\u00f6"
        },
        {
            "name": "\u00e5kerk\u00e5len",
            "identifier": "\u00e5kerk\u00e5len"
        },
        {
            "name": "Andr\u00e9 Skjoldal",
            "identifier": "\u00e6ndy"
        },
        {
            "name": "\u00edndice",
            "identifier": "\u00edndice"
        },
        {
            "name": "Sabine Price",
            "identifier": "\u00f6r"
        },
        {
            "name": "\u00dcBERJAZZ",
            "identifier": "\u00fcberjazz"
        },
        {
            "name": "\u00d8yvind Bj\u00f8rsvik",
            "identifier": "\u00f8yvindbj\u00f8rsvik"
        },
        {
            "name": "Masaki Sugimoto",
            "identifier": "\u028a\u2020-\u0165i\u0454"
        },
        {
            "name": "\u2014leticia\u2014",
            "identifier": "\u2014leticia\u2014"
        },
        {
            "name": "Its.alita",
            "identifier": "\u2601aleenelcielo\u2601"
        },
        {
            "name": "Adriano Lisboa",
            "identifier": "\u25b2ter"
        },
        {
            "name": "\u3042\u304d\u3055\u3093\u3002",
            "identifier": "\u3042\u304d\u3055\u3093\u3002"
        },
        {
            "name": "\u271demmajo\u271d",
            "identifier": "\u271demmajo\u271d"
        },
        {
            "name": "\u304f\u307e\u306e\u304d\u3083\u3082",
            "identifier": "\u304f\u307e\u306e\u304d\u3083\u3082"
        },
        {
            "name": "\u3042\u3093\u3050\u308a\u3075",
            "identifier": "\u3042\u3093\u3050\u308a\u3075"
        },
        {
            "name": "\u304b\u3075\u3047\u3058\u3083\u305a",
            "identifier": "\u304b\u3075\u3047\u3058\u3083\u305a"
        },
        {
            "name": "\u306c\u3048\u3093",
            "identifier": "\u304f\u308d\u306c\u3048"
        },
        {
            "name": "kinz up",
            "identifier": "\u3050\u3063\u3061"
        },
        {
            "name": "Syouhei Arukoru",
            "identifier": "\u3057\u3087\u3046\u3078\u3044"
        },
        {
            "name": "\u3054\u3063\u3061\u3083\u30932",
            "identifier": "\u3054\u3063\u3061\u3083\u30932"
        },
        {
            "name": "\u305d\u3046\u3055\u3093\u3067\u3059\u3002",
            "identifier": "\u305d\u3046\u3055\u3093\u3067\u3059\u3002"
        },
        {
            "name": "\u305f\u30530304",
            "identifier": "\u305f\u30530304"
        },
        {
            "name": "\u305f\u3063\u30c4\u3093",
            "identifier": "\u305f\u3063\u30c4\u3093"
        },
        {
            "name": "\u306f\u307e\u3055\u304d\u3042\u3086\u307f",
            "identifier": "\u306f\u307e\u3055\u304d\u3042\u3086\u307f"
        }
    ],
    "page": {
        "offset": 0,
        "limit": 100,
        "next": "/api/v2/playlist/curators/spotify?offset=100&limit=100",
        "previous": null,
        "total": 1476411
    },
    "errors": []
}