{
    "related": {
        "uuid": "7d534228-5165-11e9-9375-549f35161576",
        "name": "bad guy",
        "creditName": "Billie Eilish"
    },
    "items": [
        {
            "identifier": "6674853944079944450",
            "title": "",
            "authorName": "",
            "url": "https://www.tiktok.com/music/-6674853944079944450",
            "imgUrl": ""
        },
        {
            "identifier": "6750240474541328385",
            "title": "bad guy",
            "authorName": "Billie Eilish",
            "url": "https://www.tiktok.com/music/bad-guy-6750240474541328385",
            "imgUrl": "https://p77-sg.tiktokcdn.com/aweme/200x200/tos-alisg-i-0000/80d34e8207e6405aa8ac5c58d3ba31bd.jpeg"
        },
        {
            "identifier": "6741125989453006850",
            "title": "bad guy",
            "authorName": "Billie Eilish",
            "url": "https://www.tiktok.com/music/x-6860294625446432006",
            "imgUrl": "https://p16-sg.tiktokcdn.com/aweme/200x200/tos-alisg-i-0000/f273082111914bf8ba3f7a2efd6a370b.jpeg"
        },
        {
            "identifier": "5000000001471584124",
            "title": "bad guy",
            "authorName": "Billie Eilish",
            "url": "https://www.tiktok.com/music/bad-guy-5000000001471584124",
            "imgUrl": "https://p16-sg.tiktokcdn.com/aweme/200x200/tos-alisg-v-2774/45d9075b57be4affafa1cbbc4f754583.jpeg"
        },
        {
            "identifier": "6791503539077122049",
            "title": "bad guy",
            "authorName": "Billie Eilish & Justin Bieber",
            "url": "https://www.tiktok.com/music/bad-guy-6791503539077122049",
            "imgUrl": "https://p16-sg.tiktokcdn.com/aweme/200x200/tos-alisg-i-0000/cdff9fe7b2504dc19fa26aa627733ffc.jpeg"
        },
        {
            "identifier": "5000000001468873109",
            "title": "bad guy",
            "authorName": "Billie Eilish",
            "url": "https://www.tiktok.com/music/bad-guy-5000000001468873109",
            "imgUrl": "https://p16-sg.tiktokcdn.com/aweme/200x200/tos-alisg-v-2774/45d9075b57be4affafa1cbbc4f754583.jpeg"
        },
        {
            "identifier": "6849418387727174405",
            "title": "bad guy",
            "authorName": "6,0k\ud83e\udd75\ud83e\udd70",
            "url": "https://www.tiktok.com/music/bad-guy-6849418387727174405",
            "imgUrl": "https://p77-sign-va.tiktokcdn.com/musically-maliva-obj/2dc78336a7cd0fe935732fc8e9f8bf72~c5_720x720.jpeg"
        },
        {
            "identifier": "5000000001465960277",
            "title": "bad guy",
            "authorName": "Billie Eilish",
            "url": "https://www.tiktok.com/music/bad-guy-5000000001465960277",
            "imgUrl": "https://p16-amd-va.tiktokcdn.com/img/tos-useast2a-v-2774/45d9075b57be4affafa1cbbc4f754583~c5_200x200.jpeg"
        },
        {
            "identifier": "5000000001470536907",
            "title": "bad guy",
            "authorName": "Billie Eilish",
            "url": "https://www.tiktok.com/music/bad-guy-5000000001470536907",
            "imgUrl": "https://p16-amd-va.tiktokcdn.com/img/tos-useast2a-v-2774/45d9075b57be4affafa1cbbc4f754583~c5_200x200.jpeg"
        },
        {
            "identifier": "5000000001463383940",
            "title": "bad guy",
            "authorName": "Billie Eilish",
            "url": "https://www.tiktok.com/music/bad-guy-5000000001463383940",
            "imgUrl": "https://p16-amd-va.tiktokcdn.com/img/tos-useast2a-v-2774/45d9075b57be4affafa1cbbc4f754583~c5_200x200.jpeg"
        },
        {
            "identifier": "5000000001468449553",
            "title": "bad guy",
            "authorName": "Billie Eilish",
            "url": "https://www.tiktok.com/music/bad-guy-5000000001468449553",
            "imgUrl": "https://p16-sg.tiktokcdn.com/aweme/200x200/tos-alisg-v-2774/45d9075b57be4affafa1cbbc4f754583.jpeg"
        },
        {
            "identifier": "6791016385590855681",
            "title": "bad guy",
            "authorName": "Billie Eilish",
            "url": "https://www.tiktok.com/music/bad-guy-6791016385590855681",
            "imgUrl": "https://p77-sg.tiktokcdn.com/aweme/200x200/tos-alisg-i-0000/d390f849b10d442987bb9ef86c50c71b.jpeg"
        },
        {
            "identifier": "6935568044718573570",
            "title": "bad guy",
            "authorName": "Billie Eilish",
            "url": "https://www.tiktok.com/music/bad-guy-6935568044718573570",
            "imgUrl": "https://p16-sg.tiktokcdn.com/aweme/200x200/tos-alisg-v-2102/bab97a3f15df43cf87393d3e5170b3ee.jpeg"
        },
        {
            "identifier": "5000000001472661745",
            "title": "bad guy",
            "authorName": "Billie Eilish",
            "url": "https://www.tiktok.com/music/bad-guy-5000000001472661745",
            "imgUrl": "https://p16-sg.tiktokcdn.com/aweme/200x200/tos-alisg-v-2774/45d9075b57be4affafa1cbbc4f754583.jpeg"
        },
        {
            "identifier": "6739851180756715522",
            "title": "bad guy",
            "authorName": "Billie Eilish",
            "url": "https://www.tiktok.com/music/bad-guy-6739851180756715522",
            "imgUrl": "https://p16-amd-va.tiktokcdn.com/img/tos-useast2a-v-2774/d46cfb44eab840969d00eac36bb5fb7b~c5_200x200.jpeg"
        },
        {
            "identifier": "5000000001469219135",
            "title": "bad guy",
            "authorName": "Billie Eilish",
            "url": "https://www.tiktok.com/music/bad-guy-5000000001469219135",
            "imgUrl": "https://is1-ssl.mzstatic.com/image/thumb/Music113/v4/9b/61/dd/9b61dd0c-7975-a177-57ce-07991d0ddb5d/19UMGIM46074.rgb.jpg/170x170bb.jpg"
        },
        {
            "identifier": "6877389079156165382",
            "title": "Bad Guy",
            "authorName": "BILLIE EILISH",
            "url": "https://www.tiktok.com/music/Bad-Guy-6877389079156165382",
            "imgUrl": "https://p16-sg.tiktokcdn.com/tos-maliva-avt-0068/66f77f1c4919058b22a15edc20d1bd9f~c5_720x720.jpeg"
        },
        {
            "identifier": "6740850448627927042",
            "title": "bad guy",
            "authorName": "Billie Eilish",
            "url": "https://www.tiktok.com/music/bad-guy-6740850448627927042",
            "imgUrl": "https://p77-sg.tiktokcdn.com/aweme/200x200/tos-alisg-i-0000/875c4cf001be46f38ce4865b465ff96a.jpeg"
        },
        {
            "identifier": "6692773880270211846",
            "title": "bad guy",
            "authorName": "Billie Eilish",
            "url": "https://www.tiktok.com/music/bad-guy-6692773880270211846",
            "imgUrl": "https://p16-sg.tiktokcdn.com/aweme/200x200/tos-alisg-i-0000/5dcea7868ae84d82afa7286e27770eab.jpeg"
        },
        {
            "identifier": "6687488034880883463",
            "title": "bad guy",
            "authorName": "Billie Eilish",
            "url": "https://www.tiktok.com/music/bad-guy-6687488034880883463",
            "imgUrl": "https://p16-amd-va.tiktokcdn.com/img/tos-useast2a-v-2774/d46cfb44eab840969d00eac36bb5fb7b~c5_200x200.jpeg"
        },
        {
            "identifier": "6739883237809620993",
            "title": "bad guy",
            "authorName": "Billie Eilish",
            "url": "https://www.tiktok.com/music/bad-guy-6739883237809620993",
            "imgUrl": "https://p16-amd-va.tiktokcdn.com/img/tos-useast2a-v-2774/45d9075b57be4affafa1cbbc4f754583~c5_200x200.jpeg"
        },
        {
            "identifier": "5000000001470923571",
            "title": "bad guy",
            "authorName": "Billie Eilish",
            "url": "https://www.tiktok.com/music/bad-guy-5000000001470923571",
            "imgUrl": "https://p16-amd-va.tiktokcdn.com/img/tos-useast2a-v-2774/45d9075b57be4affafa1cbbc4f754583~c5_200x200.jpeg"
        },
        {
            "identifier": "5000000001450695739",
            "title": "bad guy",
            "authorName": "Billie Eilish",
            "url": "https://www.tiktok.com/music/bad-guy-5000000001450695739",
            "imgUrl": "https://p16-amd-va.tiktokcdn.com/img/tos-useast2a-v-2774/45d9075b57be4affafa1cbbc4f754583~c5_200x200.jpeg"
        },
        {
            "identifier": "5000000001466956677",
            "title": "bad guy",
            "authorName": "Billie Eilish",
            "url": "https://www.tiktok.com/music/bad-guy-5000000001466956677",
            "imgUrl": "https://p16-amd-va.tiktokcdn.com/img/tos-useast2a-v-2774/45d9075b57be4affafa1cbbc4f754583~c5_200x200.jpeg"
        },
        {
            "identifier": "5000000001467912434",
            "title": "bad guy",
            "authorName": "Billie Eilish",
            "url": "https://www.tiktok.com/music/bad-guy-5000000001467912434",
            "imgUrl": "https://p16-sg.tiktokcdn.com/aweme/200x200/tos-alisg-i-0000/f7a2226a4c66423e841585f6d0c213cd.jpeg"
        },
        {
            "identifier": "6680517643847338754",
            "title": "Bad Guy",
            "authorName": "Billie Eilish",
            "url": "https://www.tiktok.com/music/Bad-Guy-6680517643847338754",
            "imgUrl": "https://p16-sg.tiktokcdn.com/aweme/200x200/tiktok-obj/1630985734300674.JPEG.jpeg"
        },
        {
            "identifier": "6673850125149915910",
            "title": "bad guy",
            "authorName": "BILLIE EILISH",
            "url": "https://www.tiktok.com/music/bad-guy-6673850125149915910",
            "imgUrl": "https://p77-sg.tiktokcdn.com/aweme/200x200/tos-alisg-i-0000/f273082111914bf8ba3f7a2efd6a370b.jpeg"
        },
        {
            "identifier": "6740248734065494017",
            "title": "bad guy (with Justin Bieber)",
            "authorName": "Billie Eilish & Justin Bieber",
            "url": "https://www.tiktok.com/music/bad-guy--with-Justin-Bieber--6740248734065494017",
            "imgUrl": "https://p16-amd-va.tiktokcdn.com/img/tos-useast2a-v-2774/2f9c3789051f4655b3c0e012d6b80c53~c5_200x200.jpeg"
        },
        {
            "identifier": "5000000001472563571",
            "title": "bad guy (with Justin Bieber)",
            "authorName": "Billie Eilish & Justin Bieber",
            "url": "https://www.tiktok.com/music/bad-guy--with-Justin-Bieber--5000000001472563571",
            "imgUrl": "https://p16-sg.tiktokcdn.com/aweme/200x200/tos-alisg-v-2774/2f9c3789051f4655b3c0e012d6b80c53.jpeg"
        }
    ],
    "page": {
        "offset": 0,
        "limit": 100,
        "next": "/api/v2/song/7d534228-5165-11e9-9375-549f35161576/tiktok/musics?offset=100&limit=100",
        "previous": null,
        "total": 61130
    },
    "errors": []
}